{ "height":12,
 "infinite":false,
 "layers":[
        {
         "data":[145, 145, 145, 145, 145, 145, 145, 145, 145, 145, 145, 145, 145, 145, 145, 145, 145, 145, 145, 145, 145, 145, 145, 145, 145, 145, 145, 145, 145, 145, 145, 145, 145, 145, 145, 145, 145, 145, 145, 145, 145, 145, 145, 145, 145, 145, 145, 145, 145, 145, 145, 145, 145, 145, 145, 145, 145, 145, 145, 145, 145, 145, 145, 145, 145, 145, 145, 145, 145, 145, 145, 145, 145, 145, 145, 145, 145, 145, 145, 145, 145, 145, 145, 145, 145, 145, 145, 145, 145, 145, 145, 145, 145, 145, 145, 145, 145, 145, 145, 145, 145, 145, 145, 145, 145, 145, 145, 145, 145, 145, 145, 145, 145, 145, 145, 145, 145, 145, 145, 145, 145, 145, 145, 145, 145, 145, 145, 145, 145, 145, 145, 145, 145, 145, 145, 145, 145, 145, 145, 145, 145, 145, 145, 145, 145, 145, 145, 145, 145, 145, 145, 145, 145, 145, 145, 145, 145, 145, 145, 145, 145, 145, 145, 145, 145, 145, 145, 145, 145, 145, 145, 145, 145, 145, 145, 145, 145, 145, 145, 145, 145, 145, 145, 145, 145, 145, 145, 145, 145, 145, 145, 145, 145, 145, 145, 145, 145, 145, 145, 145, 145, 145, 145, 145, 145, 145, 145, 145, 145, 145, 145, 145, 145, 145, 145, 145, 145, 145, 145, 145, 145, 145, 145, 145, 145, 145, 145, 145, 145, 145, 145, 145, 145, 145, 145, 145, 145, 145, 145, 145, 145, 145, 145, 145, 145, 145, 145, 145, 145, 145, 145, 145, 145, 145, 145, 145, 145, 145, 145, 145, 145, 145, 145, 145, 145, 145, 145, 145, 145, 145, 145, 145, 145, 145, 145, 145, 145, 145, 145, 145, 145, 145, 145, 145, 145, 145, 145, 145, 145, 145, 145, 145, 145, 145, 145, 145, 145, 145, 145, 145, 145, 145, 145, 145, 145, 145, 145, 145, 145, 145, 145, 145, 145, 145, 145, 145, 145, 145, 145, 145, 145, 145, 145, 145, 145, 145, 145, 145, 145, 145, 145, 145, 145, 145, 145, 145, 145, 145, 145, 145, 145, 145, 145, 145, 145, 145, 145, 145, 145, 145, 145, 145, 145, 145, 145, 145, 145, 145, 145, 145, 145, 145, 145, 145, 145, 145, 145, 145, 145, 145, 145, 145, 145, 145, 145, 145, 145, 145, 145, 145, 145, 145, 145, 145, 145, 145, 145, 145, 145, 145, 145, 145, 145, 145, 145, 145, 145, 145, 145, 145, 145, 145, 145, 145, 145, 145, 145, 145, 145, 145, 145, 145, 145, 145, 145, 145, 145, 145, 145, 145, 145, 145, 145, 145, 145, 145, 145, 145, 145, 145, 145, 145, 145, 145, 145, 145, 145, 145, 145, 145, 145, 145, 145, 145, 145, 145, 145, 145, 145, 145, 145, 145, 145, 145, 145, 145, 145, 145, 145, 145, 145, 145, 145, 145, 145, 145, 145, 145, 145, 145, 145, 145, 145, 145, 145, 145, 145, 145, 145, 145],
         "height":12,
         "name":"Background",
         "opacity":1,
         "type":"tilelayer",
         "visible":true,
         "width":40,
         "x":0,
         "y":0
        }, 
        {
         "data":[0, 0, 0, 0, 0, 0, 0, 0, 0, 0, 0, 0, 0, 0, 0, 0, 0, 0, 0, 0, 0, 0, 0, 0, 0, 0, 0, 0, 0, 0, 0, 0, 0, 0, 0, 0, 0, 0, 0, 0, 0, 0, 0, 0, 0, 0, 0, 0, 0, 0, 0, 0, 0, 0, 0, 0, 0, 0, 0, 0, 0, 0, 0, 0, 0, 0, 0, 0, 0, 0, 0, 0, 0, 0, 0, 0, 0, 0, 0, 0, 0, 0, 0, 0, 0, 0, 0, 0, 0, 0, 0, 0, 0, 0, 0, 0, 0, 0, 0, 0, 0, 0, 0, 133, 0, 0, 0, 133, 133, 133, 0, 0, 0, 0, 0, 0, 0, 0, 0, 0, 73, 73, 73, 73, 73, 73, 0, 0, 0, 0, 0, 0, 0, 0, 0, 0, 0, 0, 0, 0, 133, 133, 133, 0, 0, 0, 0, 0, 0, 0, 0, 0, 36, 36, 36, 36, 36, 36, 36, 36, 0, 0, 0, 0, 0, 0, 0, 0, 0, 0, 0, 0, 0, 0, 0, 0, 0, 0, 0, 0, 0, 0, 0, 0, 0, 0, 0, 0, 0, 0, 0, 0, 0, 0, 0, 0, 0, 0, 0, 0, 0, 0, 0, 0, 0, 0, 0, 73, 73, 73, 73, 0, 0, 0, 0, 121, 0, 0, 0, 0, 0, 0, 0, 0, 0, 0, 155, 155, 155, 155, 155, 0, 0, 0, 0, 0, 0, 0, 0, 0, 0, 0, 0, 0, 0, 0, 0, 0, 0, 0, 0, 0, 0, 25, 25, 25, 25, 25, 25, 0, 155, 0, 0, 0, 0, 0, 0, 0, 0, 0, 0, 0, 0, 0, 0, 0, 0, 0, 0, 0, 0, 0, 0, 0, 0, 0, 0, 0, 0, 0, 0, 0, 0, 0, 0, 0, 0, 0, 0, 0, 155, 0, 0, 0, 0, 0, 0, 0, 0, 0, 0, 0, 0, 0, 0, 0, 0, 0, 0, 0, 0, 0, 0, 0, 0, 0, 0, 0, 0, 25, 25, 25, 25, 0, 0, 0, 0, 0, 0, 0, 155, 155, 155, 155, 155, 0, 0, 0, 0, 0, 0, 0, 0, 0, 0, 0, 0, 0, 0, 0, 0, 0, 0, 0, 0, 0, 0, 0, 0, 0, 0, 0, 0, 0, 0, 0, 0, 0, 0, 0, 155, 155, 155, 0, 0, 0, 36, 36, 36, 36, 36, 36, 36, 0, 0, 74, 74, 74, 74, 74, 25, 25, 25, 25, 25, 25, 25, 25, 0, 0, 0, 0, 0, 0, 0, 0, 0, 0, 0, 0, 155, 155, 155, 0, 0, 0, 0, 153, 153, 153, 153, 153, 153, 0, 0, 99, 99, 99, 99, 99, 25, 25, 25, 25, 25, 25, 25, 25, 0, 0, 0, 0, 0, 0, 0, 0, 0, 0, 0, 0, 155, 155, 155, 0, 0, 0, 0, 153, 153, 153, 153, 153, 153, 0, 0, 99, 99, 99, 99, 99],
         "height":12,
         "name":"Collision",
         "opacity":1,
         "type":"tilelayer",
         "visible":true,
         "width":40,
         "x":0,
         "y":0
        }, 
        {
         "draworder":"topdown",
         "name":"Objects",
         "objects":[
                {
                 "gid":147,
                 "height":35,
                 "id":1,
                 "name":"",
                 "properties":
                    {
                     "type":"player"
                    },
                 "propertytypes":
                    {
                     "type":"string"
                    },
                 "rotation":0,
                 "type":"player",
                 "visible":true,
                 "width":35,
                 "x":1143,
                 "y":94
                }, 
                {
                 "gid":148,
                 "height":35,
                 "id":2,
                 "name":"",
                 "properties":
                    {
                     "key":"goal",
                     "nextLevel":"level1",
                     "type":"goal"
                    },
                 "propertytypes":
                    {
                     "key":"string",
                     "nextLevel":"string",
                     "type":"string"
                    },
                 "rotation":0,
                 "type":"goal",
                 "visible":true,
                 "width":35,
                 "x":1282,
                 "y":283
                }, 
                {
                 "gid":146,
                 "height":35,
                 "id":3,
                 "name":"",
                 "properties":
                    {
                     "type":"enemy"
                    },
                 "propertytypes":
                    {
                     "type":"string"
                    },
                 "rotation":0,
                 "type":"enemy",
                 "visible":true,
                 "width":35,
                 "x":293,
                 "y":171
                }, 
                {
                 "gid":146,
                 "height":35,
                 "id":4,
                 "name":"",
                 "properties":
                    {
                     "type":"enemy"
                    },
                 "propertytypes":
                    {
                     "type":"string"
                    },
                 "rotation":0,
                 "type":"enemy",
                 "visible":true,
                 "width":35,
                 "x":221,
                 "y":339
                }, 
                {
                 "gid":146,
                 "height":35,
                 "id":5,
                 "name":"",
                 "properties":
                    {
                     "type":"enemy"
                    },
                 "propertytypes":
                    {
                     "type":"string"
                    },
                 "rotation":0,
                 "type":"enemy",
                 "visible":true,
                 "width":35,
                 "x":590,
                 "y":205
                }, 
                {
                 "gid":146,
                 "height":35,
                 "id":6,
                 "name":"",
                 "properties":
                    {
                     "type":"enemy"
                    },
                 "propertytypes":
                    {
                     "type":"string"
                    },
                 "rotation":0,
                 "type":"enemy",
                 "visible":true,
                 "width":35,
                 "x":716,
                 "y":100
                }, 
                {
                 "gid":146,
                 "height":35,
                 "id":7,
                 "name":"",
                 "properties":
                    {
                     "type":"enemy"
                    },
                 "propertytypes":
                    {
                     "type":"string"
                    },
                 "rotation":0,
                 "type":"enemy",
                 "visible":true,
                 "width":35,
                 "x":988,
                 "y":66
                }, 
                {
                 "gid":146,
                 "height":35,
                 "id":8,
                 "name":"",
                 "properties":
                    {
                     "type":"enemy"
                    },
                 "propertytypes":
                    {
                     "type":"string"
                    },
                 "rotation":0,
                 "type":"enemy",
                 "visible":true,
                 "width":35,
                 "x":799,
                 "y":274
                }, 
                {
                 "gid":146,
                 "height":35,
                 "id":9,
                 "name":"",
                 "properties":
                    {
                     "type":"enemy"
                    },
                 "propertytypes":
                    {
                     "type":"string"
                    },
                 "rotation":0,
                 "type":"enemy",
                 "visible":true,
                 "width":35,
                 "x":968,
                 "y":170
                }, 
                {
                 "gid":146,
                 "height":35,
                 "id":10,
                 "name":"",
                 "properties":
                    {
                     "type":"enemy",
                     "velocity":80
                    },
                 "propertytypes":
                    {
                     "type":"string",
                     "velocity":"int"
                    },
                 "rotation":0,
                 "type":"enemy",
                 "visible":true,
                 "width":35,
                 "x":1042,
                 "y":311
                }],
         "opacity":1,
         "type":"objectgroup",
         "visible":true,
         "x":0,
         "y":0
        }],
 "nextobjectid":11,
 "orientation":"orthogonal",
 "renderorder":"right-down",
 "tiledversion":"2017.12.07",
 "tileheight":35,
 "tilesets":[
        {
         "columns":12,
         "firstgid":1,
         "image":"..\/images\/tiles_spritesheet.png",
         "imageheight":468,
         "imagewidth":457,
         "margin":0,
         "name":"tiles_spritesheet",
         "spacing":1,
         "tilecount":156,
         "tileheight":35,
         "tilewidth":35
        }],
 "tilewidth":35,
 "type":"map",
 "version":1,
 "width":40
}